{
  "$schema": "https://docs.renovatebot.com/renovate-schema.json",
  "dependencyDashboard": true,
  "extends": [
    "github>kachick/renovate-config-asdf#1.11.1",
    "github>kachick/renovate-config-asdf:self"
  ],
  "labels": ["dependencies", "renovate"],
  "automerge": true,
  "enabledManagers": ["regex"],
  "prHourlyLimit": 42,
  "prConcurrentLimit": 5,
  "packageRules": [
    {
      "matchPackagePatterns": [
        "*"
      ],
      "rangeStrategy": "bump"
    },
    {
      "matchUpdateTypes": ["minor", "patch", "pin", "digest"],
      "automerge": true
    }
  ]
}
